<?xml version="1.0" encoding="UTF-8" standalone="no"?>
<svg
   xmlns:dc="http://purl.org/dc/elements/1.1/"
   xmlns:cc="http://creativecommons.org/ns#"
   xmlns:rdf="http://www.w3.org/1999/02/22-rdf-syntax-ns#"
   xmlns:svg="http://www.w3.org/2000/svg"
   xmlns="http://www.w3.org/2000/svg"
   height="16"
   id="svg7384"
   version="1.1"
   width="16">
  <metadata
     id="metadata90">
    <rdf:RDF>
      <cc:Work
         rdf:about="">
        <dc:format>image/svg+xml</dc:format>
        <dc:type
           rdf:resource="http://purl.org/dc/dcmitype/StillImage" />
        <dc:title>Gnome Symbolic Icon Theme</dc:title>
      </cc:Work>
    </rdf:RDF>
  </metadata>
  <title
     id="title9167">Gnome Symbolic Icon Theme</title>
  <defs
     id="defs7386" />
  <path
     style="display:inline;opacity:1;vector-effect:none;fill:#241f31;fill-opacity:1;stroke:none;stroke-width:0.80769247;stroke-linecap:round;stroke-linejoin:round;stroke-miterlimit:4;stroke-dasharray:none;stroke-dashoffset:0;stroke-opacity:1;enable-background:new"
     d="M 8.166016,0.9960938 C 6.881549,0.9657609 5.612697,1.2892384 4.5,1.9316406 2.334213,3.1820589 1.000024,5.4933055 1,7.994141 V 9.146484 C 1.692545,7.88864 2.714315,6.8145562 4,6.0722656 5.271904,5.3380747 6.721272,4.9670168 8.189453,5.0019531 9.529002,5.0336261 10.839531,5.40241 12,6.0722656 13.285685,6.8145562 14.307455,7.88864 15,9.146484 V 7.994141 C 14.999976,5.4933055 13.665787,3.1820589 11.5,1.9316406 10.484346,1.3452666 9.338459,1.0237612 8.166016,0.9960938 Z"
     id="path859" />
  <path
     style="display:inline;opacity:1;vector-effect:none;fill:#241f31;fill-opacity:1;stroke:none;stroke-width:1.99999988;stroke-linecap:round;stroke-linejoin:round;stroke-miterlimit:4;stroke-dasharray:none;stroke-dashoffset:0;stroke-opacity:1;enable-background:new"
     d="M 8.1660158,6.0019528 A 7.0000007,7.0000007 0 0 0 4.5000009,6.9374995 7.0000007,7.0000007 0 0 0 1.0000009,13 v 1.999999 h 1.9999996 v -1.99414 C 3.0000182,11.219548 3.9530097,9.5689361 5.5000007,8.6757809 6.2947196,8.2168943 7.1997508,7.9842726 8.1171876,8.0058593 8.9547166,8.025644 9.7745002,8.2568584 10.5,8.6757809 12.04699,9.5689361 12.999982,11.219548 13,13.005859 v 1.99414 h 2 V 13 A 7.0000007,7.0000007 0 0 0 11.5,6.9374995 7.0000007,7.0000007 0 0 0 8.1660158,6.0019528 Z"
     id="path886" />
</svg>
